module http-server

go 1.18

require (
	github.com/go-sql-driver/mysql v1.6.0
	github.com/joho/godotenv v1.4.0
)

require (
	github.com/cosmtrek/air v1.40.4 // indirect
	github.com/creack/pty v1.1.18 // indirect
	github.com/fatih/color v1.13.0 // indirect
	github.com/fsnotify/fsnotify v1.6.0 // indirect
	github.com/imdario/mergo v0.3.13 // indirect
	github.com/mattn/go-colorable v0.1.13 // indirect
	github.com/mattn/go-isatty v0.0.16 // indirect
	github.com/pelletier/go-toml v1.9.5 // indirect
	golang.org/x/sys v0.2.0 // indirect
)
